Phân tích chu: chu_lang_nghiem_version_2.pdf
…
8. N-grams (bigram) — lọc stopwords hai bên

bigrams <- tibble(text = text_all) %>%
  unnest_tokens(bigram, text, token = "ngrams", n = 2) %>%
  separate(bigram, into = c("w1","w2"), sep = " ") %>%
  filter(!w1 %in% vn_stop, !w2 %in% vn_stop) %>%
  unite(bigram, w1, w2, sep = " ")
bigram_freq <- bigrams %>% count(bigram, sort = TRUE)
bigram_freq %>% slice_max(n, n = 20)

# A tibble: 24 × 2
   bigram      n
   <chr>   <int>
 1 ra ha      52
 2 yết ra     51
 3 nam mô     32
 4 đà dạ      31
 5 dạ di      30
 6 tỳ đà      21
 7 ma ha      20
 8 tát bà     20
 9 tệ phấn    19
10 đà ra      19
# ℹ 14 more rows
…
